[gd_scene load_steps=8 format=2]

[ext_resource path="res://assets/Sprites/explosion3.png" type="Texture" id=1]
[ext_resource path="res://assets/Sprites/explosion1.png" type="Texture" id=2]
[ext_resource path="res://assets/Sprites/explosion2.png" type="Texture" id=3]
[ext_resource path="res://assets/Sprites/explosion4.png" type="Texture" id=4]
[ext_resource path="res://assets/Sprites/explosion5.png" type="Texture" id=5]
[ext_resource path="res://Scripts/Explosion.gd" type="Script" id=6]

[sub_resource type="SpriteFrames" id=1]
animations = [ {
"frames": [ ExtResource( 2 ), ExtResource( 3 ), ExtResource( 1 ), ExtResource( 4 ), ExtResource( 5 ) ],
"loop": true,
"name": "default",
"speed": 5.0
} ]

[node name="Explosion" type="AnimatedSprite"]
scale = Vector2( 0.35, 0.35 )
frames = SubResource( 1 )
frame = 4
speed_scale = 2.0
playing = true
script = ExtResource( 6 )

[connection signal="animation_finished" from="." to="." method="_on_Explosion_animation_finished"]
